<?xml version="1.0" standalone="no"?>
<svg width="567.429" height="384.969" viewBox="0 0 567.429 384.969" xmlns="http://www.w3.org/2000/svg" shape-rendering="crispEdges">
<title>
muon_sizes.svg
</title>
<desc>
Creator: ROOT Version 6.23/01
CreationDate: Thu Nov 12 15:46:33 2020</desc>
<defs>
</defs>
<rect x="0.5" y="0" width="566.929" height="384.469" fill="white"/>
<rect x="57.1929" y="38.4469" width="453.543" height="307.575" fill="white"/>
<rect x="57.1929" y="38.4469" width="453.543" height="307.575" fill="none" stroke="black"/>
<path d="M57.1929,53.0934h 3.54331v 292.929h 21.2598v -114.171h 3.54331v 114.171h 21.2598v -22.0077h 3.54331v 22.0077h 21.2598v -4.26237h 3.54331v 4.26237h 21.2598v -0.956858h 3.54331v 0.956858h 21.2598v -0.304455h 3.54331v 0.304455h 21.2598v
 -0.130481h 3.54331v 0.130481h 21.2598v -0.086987h 3.54331v 0.086987h 21.2598v -0.0434935h 3.54331v 0.0434935h 24.8032v -0.0434935h 3.54331v 0.0434935h 223.228" fill="none" stroke="#000099"/>
<path d="M57.1929,346.022h 453.543" fill="none" stroke="black"/>
<path d="M57.1929,336.795v 9.22726" fill="none" stroke="black"/>
<path d="M69.7913,341.409v 4.61363" fill="none" stroke="black"/>
<path d="M82.3898,341.409v 4.61363" fill="none" stroke="black"/>
<path d="M94.9882,341.409v 4.61363" fill="none" stroke="black"/>
<path d="M107.587,336.795v 9.22726" fill="none" stroke="black"/>
<path d="M120.185,341.409v 4.61363" fill="none" stroke="black"/>
<path d="M132.783,341.409v 4.61363" fill="none" stroke="black"/>
<path d="M145.382,341.409v 4.61363" fill="none" stroke="black"/>
<path d="M157.98,336.795v 9.22726" fill="none" stroke="black"/>
<path d="M170.579,341.409v 4.61363" fill="none" stroke="black"/>
<path d="M183.177,341.409v 4.61363" fill="none" stroke="black"/>
<path d="M195.776,341.409v 4.61363" fill="none" stroke="black"/>
<path d="M208.374,336.795v 9.22726" fill="none" stroke="black"/>
<path d="M220.972,341.409v 4.61363" fill="none" stroke="black"/>
<path d="M233.571,341.409v 4.61363" fill="none" stroke="black"/>
<path d="M246.169,341.409v 4.61363" fill="none" stroke="black"/>
<path d="M258.768,336.795v 9.22726" fill="none" stroke="black"/>
<path d="M271.366,341.409v 4.61363" fill="none" stroke="black"/>
<path d="M283.965,341.409v 4.61363" fill="none" stroke="black"/>
<path d="M296.563,341.409v 4.61363" fill="none" stroke="black"/>
<path d="M309.161,336.795v 9.22726" fill="none" stroke="black"/>
<path d="M321.76,341.409v 4.61363" fill="none" stroke="black"/>
<path d="M334.358,341.409v 4.61363" fill="none" stroke="black"/>
<path d="M346.957,341.409v 4.61363" fill="none" stroke="black"/>
<path d="M359.555,336.795v 9.22726" fill="none" stroke="black"/>
<path d="M372.154,341.409v 4.61363" fill="none" stroke="black"/>
<path d="M384.752,341.409v 4.61363" fill="none" stroke="black"/>
<path d="M397.35,341.409v 4.61363" fill="none" stroke="black"/>
<path d="M409.949,336.795v 9.22726" fill="none" stroke="black"/>
<path d="M422.547,341.409v 4.61363" fill="none" stroke="black"/>
<path d="M435.146,341.409v 4.61363" fill="none" stroke="black"/>
<path d="M447.744,341.409v 4.61363" fill="none" stroke="black"/>
<path d="M460.343,336.795v 9.22726" fill="none" stroke="black"/>
<path d="M472.941,341.409v 4.61363" fill="none" stroke="black"/>
<path d="M485.539,341.409v 4.61363" fill="none" stroke="black"/>
<path d="M498.138,341.409v 4.61363" fill="none" stroke="black"/>
<path d="M510.736,336.795v 9.22726" fill="none" stroke="black"/>
<text xml:space="preserve" x="53.446" y="358.403" fill="black" font-size="12.8453" font-family="Helvetica">0</text>
<text xml:space="preserve" x="103.948" y="358.403" fill="black" font-size="12.8453" font-family="Helvetica">2</text>
<text xml:space="preserve" x="154.451" y="358.403" fill="black" font-size="12.8453" font-family="Helvetica">4</text>
<text xml:space="preserve" x="204.953" y="358.403" fill="black" font-size="12.8453" font-family="Helvetica">6</text>
<text xml:space="preserve" x="255.455" y="358.403" fill="black" font-size="12.8453" font-family="Helvetica">8</text>
<text xml:space="preserve" x="301.885" y="358.403" fill="black" font-size="12.8453" font-family="Helvetica">10</text>
<text xml:space="preserve" x="351.573" y="358.403" fill="black" font-size="12.8453" font-family="Helvetica">12</text>
<text xml:space="preserve" x="402.075" y="358.403" fill="black" font-size="12.8453" font-family="Helvetica">14</text>
<text xml:space="preserve" x="452.577" y="358.403" fill="black" font-size="12.8453" font-family="Helvetica">16</text>
<text xml:space="preserve" x="503.079" y="358.403" fill="black" font-size="12.8453" font-family="Helvetica">18</text>
<text xml:space="preserve" x="473.755" y="372.251" fill="black" font-size="12.8453" font-family="Helvetica">nMuon</text>
<path d="M57.1929,346.022v -307.575" fill="none" stroke="black"/>
<path d="M70.7992,346.022h -13.6063" fill="none" stroke="black"/>
<path d="M63.9961,337.324h -6.80315" fill="none" stroke="black"/>
<path d="M63.9961,328.625h -6.80315" fill="none" stroke="black"/>
<path d="M63.9961,319.926h -6.80315" fill="none" stroke="black"/>
<path d="M63.9961,311.227h -6.80315" fill="none" stroke="black"/>
<path d="M70.7992,302.529h -13.6063" fill="none" stroke="black"/>
<path d="M63.9961,293.83h -6.80315" fill="none" stroke="black"/>
<path d="M63.9961,285.131h -6.80315" fill="none" stroke="black"/>
<path d="M63.9961,276.433h -6.80315" fill="none" stroke="black"/>
<path d="M63.9961,267.734h -6.80315" fill="none" stroke="black"/>
<path d="M70.7992,259.035h -13.6063" fill="none" stroke="black"/>
<path d="M63.9961,250.337h -6.80315" fill="none" stroke="black"/>
<path d="M63.9961,241.638h -6.80315" fill="none" stroke="black"/>
<path d="M63.9961,232.939h -6.80315" fill="none" stroke="black"/>
<path d="M63.9961,224.24h -6.80315" fill="none" stroke="black"/>
<path d="M70.7992,215.542h -13.6063" fill="none" stroke="black"/>
<path d="M63.9961,206.843h -6.80315" fill="none" stroke="black"/>
<path d="M63.9961,198.144h -6.80315" fill="none" stroke="black"/>
<path d="M63.9961,189.446h -6.80315" fill="none" stroke="black"/>
<path d="M63.9961,180.747h -6.80315" fill="none" stroke="black"/>
<path d="M70.7992,172.048h -13.6063" fill="none" stroke="black"/>
<path d="M63.9961,163.349h -6.80315" fill="none" stroke="black"/>
<path d="M63.9961,154.651h -6.80315" fill="none" stroke="black"/>
<path d="M63.9961,145.952h -6.80315" fill="none" stroke="black"/>
<path d="M63.9961,137.253h -6.80315" fill="none" stroke="black"/>
<path d="M70.7992,128.555h -13.6063" fill="none" stroke="black"/>
<path d="M63.9961,119.856h -6.80315" fill="none" stroke="black"/>
<path d="M63.9961,111.157h -6.80315" fill="none" stroke="black"/>
<path d="M63.9961,102.459h -6.80315" fill="none" stroke="black"/>
<path d="M63.9961,93.7598h -6.80315" fill="none" stroke="black"/>
<path d="M70.7992,85.0611h -13.6063" fill="none" stroke="black"/>
<path d="M63.9961,76.3624h -6.80315" fill="none" stroke="black"/>
<path d="M63.9961,67.6637h -6.80315" fill="none" stroke="black"/>
<path d="M63.9961,58.965h -6.80315" fill="none" stroke="black"/>
<path d="M63.9961,50.2663h -6.80315" fill="none" stroke="black"/>
<path d="M70.7992,41.5676h -13.6063" fill="none" stroke="black"/>
<path d="M70.7992,41.5676h -13.6063" fill="none" stroke="black"/>
<text xml:space="preserve" x="47.7441" y="350.258" fill="black" font-size="12.8453" font-family="Helvetica">0</text>
<text xml:space="preserve" x="27.3803" y="307.087" fill="black" font-size="12.8453" font-family="Helvetica">1000</text>
<text xml:space="preserve" x="27.3803" y="263.915" fill="black" font-size="12.8453" font-family="Helvetica">2000</text>
<text xml:space="preserve" x="27.3803" y="219.929" fill="black" font-size="12.8453" font-family="Helvetica">3000</text>
<text xml:space="preserve" x="27.3803" y="176.758" fill="black" font-size="12.8453" font-family="Helvetica">4000</text>
<text xml:space="preserve" x="27.3803" y="132.772" fill="black" font-size="12.8453" font-family="Helvetica">5000</text>
<text xml:space="preserve" x="27.3803" y="89.6009" fill="black" font-size="12.8453" font-family="Helvetica">6000</text>
<text xml:space="preserve" x="27.3803" y="46.4295" fill="black" font-size="12.8453" font-family="Helvetica">7000</text>
<g transform="rotate(-90,14.3474,68.4225)">
<text xml:space="preserve" x="14.3474" y="68.4225" fill="black" font-size="12.8453" font-family="Helvetica">count</text>
</g>
<text xml:space="preserve" x="257.899" y="18.7347" fill="black" font-size="16.9898" font-family="Helvetica">nMuon</text>
<rect x="442.705" y="24.9905" width="113.386" height="61.5151" fill="white"/>
<path d="M442.705,86.5056h 113.386" fill="none" stroke="black"/>
<path d="M556.091,86.5056v -61.5151" fill="none" stroke="black"/>
<path d="M556.091,24.9905h -113.386" fill="none" stroke="black"/>
<path d="M442.705,24.9905v 61.5151" fill="none" stroke="black"/>
<text xml:space="preserve" x="479.457" y="37.4695" fill="black" font-size="13.4802" font-family="Helvetica">nMuon</text>
<path d="M442.705,40.3693h 113.386" fill="none" stroke="black"/>
<text xml:space="preserve" x="447.69" y="52.946" fill="black" font-size="12.7186" font-family="Helvetica">Entries </text>
<text xml:space="preserve" x="512.854" y="52.946" fill="black" font-size="12.7186" font-family="Helvetica"> 10000</text>
<text xml:space="preserve" x="447.69" y="67.6079" fill="black" font-size="12.7186" font-family="Helvetica">Mean  </text>
<text xml:space="preserve" x="509.596" y="67.6079" fill="black" font-size="12.7186" font-family="Helvetica"> 0.4103</text>
<text xml:space="preserve" x="447.69" y="83.0844" fill="black" font-size="12.7186" font-family="Helvetica">Std Dev   </text>
<text xml:space="preserve" x="509.596" y="83.0844" fill="black" font-size="12.7186" font-family="Helvetica"> 0.6874</text>
<path d="M57.1929,73.6223h 4.72441v 272.4h 18.8976v -122.956h 4.72441v 122.956h 18.8976v -27.3139h 4.72441v 27.3139h 23.622v -7.3939h 4.72441v 7.3939h 18.8976v -2.47913h 4.72441v 2.47913h 18.8976v -1.39179h 4.72441v 1.39179h 23.622v -0.478429h
 4.72441v 0.478429h 18.8976v -0.304455h 4.72441v 0.304455h 18.8976v -0.130481h 4.72441v 0.130481h 23.622v -0.0434935h 4.72441v 0.0434935h 70.8661v -0.0434935h 4.72441v 0.0434935h 146.457" fill="none" stroke="#000099"/>
<path d="M57.1929,86.018h 2.3622v 260.004h 21.2598v -88.0744h 2.3622v 88.0744h 23.622v -74.9828h 2.3622v 74.9828h 23.622v -10.0035h 2.3622v 10.0035h 21.2598v -1.60926h 2.3622v 1.60926h 23.622v -0.173974h 2.3622v 0.173974h 23.622v -0.086987h 2.3622v
 0.086987h 148.819" fill="none" stroke="#000099"/>
<path d="M57.1929,153.694h 5.51181v 192.328h 16.5354v -126.871h 5.51181v 126.871h 22.0472v -64.2834h 5.51181v 64.2834h 16.5354v -28.2273h 5.51181v 28.2273h 22.0472v -12.8741h 5.51181v 12.8741h 16.5354v -5.3497h 5.51181v 5.3497h 22.0472v -2.60961h
 5.51181v 2.60961h 22.0472v -1.39179h 5.51181v 1.39179h 16.5354v -0.478429h 5.51181v 0.478429h 22.0472v -0.391442h 5.51181v 0.391442h 16.5354v -0.086987h 5.51181v 0.086987h 99.2126v -0.0434935h 5.51181v 0.0434935h 95.2756" fill="none"
 stroke="#000099"/>
<path d="M57.1929,57.7037h 2.75591v 288.319h 22.0472v -128.175h 2.75591v 128.175h 22.0472v -15.3097h 2.75591v 15.3097h 22.0472v -2.34865h 2.75591v 2.34865h 22.0472v -0.565416h 2.75591v 0.565416h 22.0472v -0.086987h 2.75591v 0.086987h 22.0472v
 -0.086987h 2.75591v 0.086987h 24.8032v -0.0434935h 2.75591v 0.0434935h 173.622" fill="none" stroke="#000099"/>
<path d="M57.1929,60.2263h 2.3622v 285.796h 21.2598v -126.392h 2.3622v 126.392h 23.622v -17.5714h 2.3622v 17.5714h 23.622v -4.08839h 2.3622v 4.08839h 21.2598v -0.695896h 2.3622v 0.695896h 23.622v -0.260961h 2.3622v 0.260961h 23.622v -0.130481h
 2.3622v 0.130481h 148.819" fill="none" stroke="#000099"/>
<path d="M57.1929,76.2319h 2.75591v 269.79h 22.0472v -133.612h 2.75591v 133.612h 22.0472v -23.356h 2.75591v 23.356h 22.0472v -5.56717h 2.75591v 5.56717h 22.0472v -1.69625h 2.75591v 1.69625h 22.0472v -0.73939h 2.75591v 0.73939h 22.0472v -0.130481h
 2.75591v 0.130481h 24.8032v -0.0434935h 2.75591v 0.0434935h 173.622" fill="none" stroke="#000099"/>
<path d="M57.1929,151.302h 2.75591v 194.721h 22.0472v -154.054h 2.75591v 154.054h 22.0472v -66.98h 2.75591v 66.98h 22.0472v -14.6573h 2.75591v 14.6573h 22.0472v -3.39249h 2.75591v 3.39249h 22.0472v -0.782883h 2.75591v 0.782883h 22.0472v -0.217468h
 2.75591v 0.217468h 24.8032v -0.130481h 2.75591v 0.130481h 173.622" fill="none" stroke="#000099"/>
<path d="M57.1929,155.825h 3.14961v 190.197h 22.0472v -155.489h 3.14961v 155.489h 22.0472v -67.5454h 3.14961v 67.5454h 22.0472v -15.7012h 3.14961v 15.7012h 22.0472v -4.21887h 3.14961v 4.21887h 22.0472v -1.26131h 3.14961v 1.26131h 22.0472v -0.347948h
 3.14961v 0.347948h 22.0472v -0.130481h 3.14961v 0.130481h 22.0472v -0.0434935h 3.14961v 0.0434935h 198.425" fill="none" stroke="#000099"/>
<text xml:space="preserve" x="257.899" y="18.7347" fill="black" font-size="16.9898" font-family="Helvetica">nMuon</text></svg>
