<?xml version="1.0" standalone="no"?>
<svg width="567.429" height="384.969" viewBox="0 0 567.429 384.969" xmlns="http://www.w3.org/2000/svg" shape-rendering="crispEdges">
<title>
tau_sizes.svg
</title>
<desc>
Creator: ROOT Version 6.23/01
CreationDate: Thu Nov 12 15:46:33 2020</desc>
<defs>
</defs>
<rect x="0.5" y="0" width="566.929" height="384.469" fill="white"/>
<rect x="57.1929" y="38.4469" width="453.543" height="307.575" fill="white"/>
<rect x="57.1929" y="38.4469" width="453.543" height="307.575" fill="none" stroke="black"/>
<path d="M57.1929,306.991h 3.54331v -117.674h 3.54331v -136.224h 3.54331v 292.929h 3.54331v -260.66h 3.54331v 65.31h 3.54331v 195.35h 3.54331v -149.942h 3.54331v 28.4041h 3.54331v 18.3564h 3.54331v 103.182h 3.54331v -89.2699h 3.54331v 13.3325h
 3.54331v 75.9374h 3.54331v -59.8997h 3.54331v 3.0916h 3.54331v 56.8081h 3.54331v -45.4078h 3.54331v 1.5458h 3.54331v 6.37642h 3.54331v 37.4856h 3.54331v -26.665h 3.54331v -2.3187h 3.54331v 28.9837h 3.54331v -23.5734h 3.54331v 4.83062h 3.54331v
 18.7428h 3.54331v -17.5835h 3.54331v 4.6374h 3.54331v -2.70515h 3.54331v 15.6512h 3.54331v -12.1732h 3.54331v 4.83062h 3.54331v 7.34254h 3.54331v -8.69512h 3.54331v 1.35257h 3.54331v 1.5458h 3.54331v 5.79675h 3.54331v -6.37642h 3.54331v 3.0916h
 3.54331v 3.28482h 3.54331v -3.8645h 3.54331v 3.47805h 3.54331v 0.38645h 3.54331v -1.15935h 7.08661v -0.193225h 3.54331v 1.35257h 17.7165v -0.193225h 3.54331v 0.193225h 3.54331v -0.193225h 3.54331v -0.193225h 3.54331v 0.193225h 3.54331v 0.193225h
 24.8032v -0.193225h 3.54331v 0.193225h 223.228" fill="none" stroke="#000099"/>
<path d="M57.1929,346.022h 453.543" fill="none" stroke="black"/>
<path d="M57.1929,336.795v 9.22726" fill="none" stroke="black"/>
<path d="M67.2717,341.409v 4.61363" fill="none" stroke="black"/>
<path d="M77.3504,341.409v 4.61363" fill="none" stroke="black"/>
<path d="M87.4291,341.409v 4.61363" fill="none" stroke="black"/>
<path d="M97.5079,341.409v 4.61363" fill="none" stroke="black"/>
<path d="M107.587,336.795v 9.22726" fill="none" stroke="black"/>
<path d="M117.665,341.409v 4.61363" fill="none" stroke="black"/>
<path d="M127.744,341.409v 4.61363" fill="none" stroke="black"/>
<path d="M137.823,341.409v 4.61363" fill="none" stroke="black"/>
<path d="M147.902,341.409v 4.61363" fill="none" stroke="black"/>
<path d="M157.98,336.795v 9.22726" fill="none" stroke="black"/>
<path d="M168.059,341.409v 4.61363" fill="none" stroke="black"/>
<path d="M178.138,341.409v 4.61363" fill="none" stroke="black"/>
<path d="M188.217,341.409v 4.61363" fill="none" stroke="black"/>
<path d="M198.295,341.409v 4.61363" fill="none" stroke="black"/>
<path d="M208.374,336.795v 9.22726" fill="none" stroke="black"/>
<path d="M218.453,341.409v 4.61363" fill="none" stroke="black"/>
<path d="M228.531,341.409v 4.61363" fill="none" stroke="black"/>
<path d="M238.61,341.409v 4.61363" fill="none" stroke="black"/>
<path d="M248.689,341.409v 4.61363" fill="none" stroke="black"/>
<path d="M258.768,336.795v 9.22726" fill="none" stroke="black"/>
<path d="M268.846,341.409v 4.61363" fill="none" stroke="black"/>
<path d="M278.925,341.409v 4.61363" fill="none" stroke="black"/>
<path d="M289.004,341.409v 4.61363" fill="none" stroke="black"/>
<path d="M299.083,341.409v 4.61363" fill="none" stroke="black"/>
<path d="M309.161,336.795v 9.22726" fill="none" stroke="black"/>
<path d="M319.24,341.409v 4.61363" fill="none" stroke="black"/>
<path d="M329.319,341.409v 4.61363" fill="none" stroke="black"/>
<path d="M339.398,341.409v 4.61363" fill="none" stroke="black"/>
<path d="M349.476,341.409v 4.61363" fill="none" stroke="black"/>
<path d="M359.555,336.795v 9.22726" fill="none" stroke="black"/>
<path d="M369.634,341.409v 4.61363" fill="none" stroke="black"/>
<path d="M379.713,341.409v 4.61363" fill="none" stroke="black"/>
<path d="M389.791,341.409v 4.61363" fill="none" stroke="black"/>
<path d="M399.87,341.409v 4.61363" fill="none" stroke="black"/>
<path d="M409.949,336.795v 9.22726" fill="none" stroke="black"/>
<path d="M420.028,341.409v 4.61363" fill="none" stroke="black"/>
<path d="M430.106,341.409v 4.61363" fill="none" stroke="black"/>
<path d="M440.185,341.409v 4.61363" fill="none" stroke="black"/>
<path d="M450.264,341.409v 4.61363" fill="none" stroke="black"/>
<path d="M460.343,336.795v 9.22726" fill="none" stroke="black"/>
<path d="M470.421,341.409v 4.61363" fill="none" stroke="black"/>
<path d="M480.5,341.409v 4.61363" fill="none" stroke="black"/>
<path d="M490.579,341.409v 4.61363" fill="none" stroke="black"/>
<path d="M500.657,341.409v 4.61363" fill="none" stroke="black"/>
<path d="M510.736,336.795v 9.22726" fill="none" stroke="black"/>
<text xml:space="preserve" x="53.446" y="358.403" fill="black" font-size="12.8453" font-family="Helvetica">0</text>
<text xml:space="preserve" x="100.69" y="358.403" fill="black" font-size="12.8453" font-family="Helvetica">10</text>
<text xml:space="preserve" x="151.192" y="358.403" fill="black" font-size="12.8453" font-family="Helvetica">20</text>
<text xml:space="preserve" x="201.695" y="358.403" fill="black" font-size="12.8453" font-family="Helvetica">30</text>
<text xml:space="preserve" x="252.197" y="358.403" fill="black" font-size="12.8453" font-family="Helvetica">40</text>
<text xml:space="preserve" x="301.885" y="358.403" fill="black" font-size="12.8453" font-family="Helvetica">50</text>
<text xml:space="preserve" x="352.387" y="358.403" fill="black" font-size="12.8453" font-family="Helvetica">60</text>
<text xml:space="preserve" x="402.889" y="358.403" fill="black" font-size="12.8453" font-family="Helvetica">70</text>
<text xml:space="preserve" x="453.392" y="358.403" fill="black" font-size="12.8453" font-family="Helvetica">80</text>
<text xml:space="preserve" x="503.894" y="358.403" fill="black" font-size="12.8453" font-family="Helvetica">90</text>
<text xml:space="preserve" x="482.716" y="372.251" fill="black" font-size="12.8453" font-family="Helvetica">nTau</text>
<path d="M57.1929,346.022v -307.575" fill="none" stroke="black"/>
<path d="M70.7992,346.022h -13.6063" fill="none" stroke="black"/>
<path d="M63.9961,336.361h -6.80315" fill="none" stroke="black"/>
<path d="M63.9961,326.7h -6.80315" fill="none" stroke="black"/>
<path d="M63.9961,317.039h -6.80315" fill="none" stroke="black"/>
<path d="M70.7992,307.377h -13.6063" fill="none" stroke="black"/>
<path d="M63.9961,297.716h -6.80315" fill="none" stroke="black"/>
<path d="M63.9961,288.055h -6.80315" fill="none" stroke="black"/>
<path d="M63.9961,278.394h -6.80315" fill="none" stroke="black"/>
<path d="M70.7992,268.732h -13.6063" fill="none" stroke="black"/>
<path d="M63.9961,259.071h -6.80315" fill="none" stroke="black"/>
<path d="M63.9961,249.41h -6.80315" fill="none" stroke="black"/>
<path d="M63.9961,239.749h -6.80315" fill="none" stroke="black"/>
<path d="M70.7992,230.087h -13.6063" fill="none" stroke="black"/>
<path d="M63.9961,220.426h -6.80315" fill="none" stroke="black"/>
<path d="M63.9961,210.765h -6.80315" fill="none" stroke="black"/>
<path d="M63.9961,201.104h -6.80315" fill="none" stroke="black"/>
<path d="M70.7992,191.442h -13.6063" fill="none" stroke="black"/>
<path d="M63.9961,181.781h -6.80315" fill="none" stroke="black"/>
<path d="M63.9961,172.12h -6.80315" fill="none" stroke="black"/>
<path d="M63.9961,162.459h -6.80315" fill="none" stroke="black"/>
<path d="M70.7992,152.797h -13.6063" fill="none" stroke="black"/>
<path d="M63.9961,143.136h -6.80315" fill="none" stroke="black"/>
<path d="M63.9961,133.475h -6.80315" fill="none" stroke="black"/>
<path d="M63.9961,123.814h -6.80315" fill="none" stroke="black"/>
<path d="M70.7992,114.152h -13.6063" fill="none" stroke="black"/>
<path d="M63.9961,104.491h -6.80315" fill="none" stroke="black"/>
<path d="M63.9961,94.8299h -6.80315" fill="none" stroke="black"/>
<path d="M63.9961,85.1687h -6.80315" fill="none" stroke="black"/>
<path d="M70.7992,75.5074h -13.6063" fill="none" stroke="black"/>
<path d="M70.7992,75.5074h -13.6063" fill="none" stroke="black"/>
<path d="M63.9961,65.8462h -6.80315" fill="none" stroke="black"/>
<path d="M63.9961,56.185h -6.80315" fill="none" stroke="black"/>
<path d="M63.9961,46.5237h -6.80315" fill="none" stroke="black"/>
<text xml:space="preserve" x="47.7441" y="350.258" fill="black" font-size="12.8453" font-family="Helvetica">0</text>
<text xml:space="preserve" x="33.8967" y="311.974" fill="black" font-size="12.8453" font-family="Helvetica">200</text>
<text xml:space="preserve" x="33.8967" y="272.875" fill="black" font-size="12.8453" font-family="Helvetica">400</text>
<text xml:space="preserve" x="33.8967" y="234.591" fill="black" font-size="12.8453" font-family="Helvetica">600</text>
<text xml:space="preserve" x="33.8967" y="196.307" fill="black" font-size="12.8453" font-family="Helvetica">800</text>
<text xml:space="preserve" x="27.3803" y="157.209" fill="black" font-size="12.8453" font-family="Helvetica">1000</text>
<text xml:space="preserve" x="27.3803" y="118.925" fill="black" font-size="12.8453" font-family="Helvetica">1200</text>
<text xml:space="preserve" x="27.3803" y="79.8262" fill="black" font-size="12.8453" font-family="Helvetica">1400</text>
<g transform="rotate(-90,14.3474,68.4225)">
<text xml:space="preserve" x="14.3474" y="68.4225" fill="black" font-size="12.8453" font-family="Helvetica">count</text>
</g>
<text xml:space="preserve" x="264.415" y="18.7347" fill="black" font-size="16.9898" font-family="Helvetica">nTau</text>
<rect x="442.705" y="24.9905" width="113.386" height="61.5151" fill="white"/>
<path d="M442.705,86.5056h 113.386" fill="none" stroke="black"/>
<path d="M556.091,86.5056v -61.5151" fill="none" stroke="black"/>
<path d="M556.091,24.9905h -113.386" fill="none" stroke="black"/>
<path d="M442.705,24.9905v 61.5151" fill="none" stroke="black"/>
<text xml:space="preserve" x="484.345" y="37.4695" fill="black" font-size="13.4802" font-family="Helvetica">nTau</text>
<path d="M442.705,40.3693h 113.386" fill="none" stroke="black"/>
<text xml:space="preserve" x="447.69" y="52.946" fill="black" font-size="12.7186" font-family="Helvetica">Entries </text>
<text xml:space="preserve" x="512.854" y="52.946" fill="black" font-size="12.7186" font-family="Helvetica"> 10000</text>
<text xml:space="preserve" x="447.69" y="67.6079" fill="black" font-size="12.7186" font-family="Helvetica">Mean  </text>
<text xml:space="preserve" x="512.854" y="67.6079" fill="black" font-size="12.7186" font-family="Helvetica">  6.636</text>
<text xml:space="preserve" x="447.69" y="83.0844" fill="black" font-size="12.7186" font-family="Helvetica">Std Dev   </text>
<text xml:space="preserve" x="512.854" y="83.0844" fill="black" font-size="12.7186" font-family="Helvetica">  5.816</text>
<path d="M57.1929,343.704h 3.54331v -24.3463h 3.54331v -102.216h 3.54331v 128.881h 3.54331v -254.477h 3.54331v -31.3024h 3.54331v 285.78h 3.54331v -205.398h 3.54331v 47.7265h 3.54331v 34.5872h 3.54331v 123.084h 3.54331v -98.1582h 3.54331v 5.60352h
 3.54331v 92.5547h 3.54331v -79.9951h 3.54331v 16.0377h 3.54331v 63.9574h 3.54331v -56.8081h 3.54331v 8.11544h 3.54331v 9.08157h 3.54331v 39.6111h 3.54331v -41.7366h 3.54331v 7.53577h 3.54331v 34.2008h 3.54331v -33.6211h 3.54331v 5.98997h 3.54331v
 27.6312h 3.54331v -22.6073h 3.54331v 3.28482h 3.54331v 3.28482h 3.54331v 16.0377h 3.54331v -14.4919h 3.54331v 2.89837h 3.54331v 11.5935h 3.54331v -9.27479h 3.54331v 0.966124h 3.54331v 1.73902h 3.54331v 6.56965h 3.54331v -4.25095h 3.54331v 0.579675h
 3.54331v 3.67127h 3.54331v -3.8645h 3.54331v 1.5458h 3.54331v 2.3187h 3.54331v -1.73902h 3.54331v -0.579675h 3.54331v 1.15935h 3.54331v 1.15935h 3.54331v -0.966124h 3.54331v 0.38645h 3.54331v 0.579675h 3.54331v -0.579675h 7.08661v 0.579675h 3.54331v
 -0.193225h 3.54331v 0.193225h 10.6299v -0.193225h 3.54331v 0.193225h 7.08661v -0.193225h 3.54331v 0.193225h 7.08661v -0.193225h 3.54331v 0.193225h 223.228" fill="none" stroke="#000099"/>
<path d="M57.1929,252.695h 2.28346v 93.3276h 2.28346v -229.551h 2.28346v 229.551h 2.28346v -307.575" fill="none" stroke="#000099"/>
<path d="M68.6102,38.4469v 307.575" fill="none" stroke="#000099"/>
<path d="M68.6102,346.022h 2.28346v -307.575" fill="none" stroke="#000099"/>
<path d="M73.1772,38.4469v 307.575" fill="none" stroke="#000099"/>
<path d="M73.1772,346.022h 2.28346v -206.751h 2.28346v 206.751h 4.56693v -141.247h 2.28346v 141.247h 2.28346v -100.863h 2.28346v 100.863h 2.28346v -77.6764h 2.28346v 77.6764h 2.28346v -58.3539h 2.28346v 58.3539h 2.28346v -49.0791h 2.28346v 49.0791h
 4.56693v -41.3501h 2.28346v 41.3501h 2.28346v -34.2008h 2.28346v 34.2008h 2.28346v -25.6989h 2.28346v 25.6989h 2.28346v -22.0276h 2.28346v 22.0276h 2.28346v -13.9122h 2.28346v 13.9122h 4.56693v -12.5596h 2.28346v 12.5596h 2.28346v -9.46802h 2.28346v
 9.46802h 2.28346v -7.14932h 2.28346v 7.14932h 2.28346v -8.69512h 2.28346v 8.69512h 2.28346v -4.83062h 2.28346v 4.83062h 4.56693v -1.93225h 2.28346v 1.93225h 2.28346v -2.70515h 2.28346v 2.70515h 2.28346v -2.89837h 2.28346v 2.89837h 2.28346v -1.35257h
 2.28346v 1.35257h 2.28346v -1.73902h 2.28346v 1.73902h 4.56693v -1.15935h 2.28346v 1.15935h 2.28346v -0.38645h 2.28346v 0.38645h 2.28346v -0.193225h 2.28346v 0.193225h 2.28346v -0.193225h 2.28346v 0.193225h 4.56693v -0.193225h 2.28346v 0.193225h
 143.858" fill="none" stroke="#000099"/>
<path d="M57.1929,345.636h 3.93701v -13.719h 3.93701v -45.2146h 3.93701v -88.3038h 3.93701v 147.624h 3.93701v -247.328h 3.93701v -3.8645h 3.93701v 41.7366h 3.93701v 51.0114h 3.93701v 158.444h 3.93701v -135.451h 3.93701v 38.8382h 3.93701v 15.0715h
 3.93701v 81.5409h 3.93701v -76.9035h 3.93701v 15.0715h 3.93701v 5.98997h 3.93701v 4.05772h 3.93701v 51.7843h 3.93701v -43.4756h 3.93701v 11.5935h 3.93701v -0.579675h 3.93701v 32.4618h 3.93701v -28.0176h 3.93701v 4.05772h 3.93701v 5.79675h 3.93701v
 -0.193225h 3.93701v 18.3564h 3.93701v -15.0715h 3.93701v 1.15935h 3.93701v 2.3187h 3.93701v 11.5935h 3.93701v -9.66124h 3.93701v 1.93225h 3.93701v 1.73902h 7.87402v 5.98997h 3.93701v -3.47805h 3.93701v -0.38645h 3.93701v 0.966124h 3.93701v 1.15935h
 3.93701v 1.73902h 3.93701v -0.966124h 3.93701v -0.772899h 3.93701v 0.579675h 3.93701v 1.15935h 3.93701v -0.579675h 3.93701v 0.193225h 3.93701v 0.38645h 11.811v -0.38645h 3.93701v 0.38645h 3.93701v -0.38645h 3.93701v 0.38645h 7.87402v -0.193225h
 3.93701v 0.193225h 3.93701v -0.193225h 3.93701v 0.193225h 19.685v -0.193225h 3.93701v 0.193225h 197.638" fill="none" stroke="#000099"/>
<path d="M57.1929,257.332h 3.22835v -214.673h 3.22835v 303.363h 3.22835v -304.136h 3.22835v 96.6124h 3.22835v 207.523h 3.22835v -155.353h 3.22835v 21.2547h 3.22835v 134.098h 3.22835v -93.5208h 3.22835v 2.89837h 3.22835v 90.6225h 3.22835v -78.0628h
 3.22835v 78.0628h 3.22835v -70.3338h 3.22835v 15.0715h 3.22835v 55.2623h 3.22835v -49.2723h 3.22835v 6.9561h 3.22835v 42.3162h 3.22835v -32.4618h 3.22835v -4.05772h 3.22835v 36.5195h 3.22835v -28.5973h 3.22835v 3.67127h 3.22835v 24.926h 3.22835v
 -23.187h 3.22835v 23.187h 3.22835v -20.2886h 3.22835v 1.15935h 3.22835v 19.1293h 3.22835v -14.6851h 3.22835v 4.83062h 3.22835v 9.85447h 3.22835v -9.08157h 3.22835v -0.193225h 3.22835v 9.27479h 3.22835v -8.30867h 3.22835v 8.30867h 3.22835v -6.1832h
 3.22835v 1.15935h 3.22835v 5.02385h 3.22835v -3.47805h 3.22835v 2.12547h 3.22835v 1.35257h 3.22835v -2.12547h 3.22835v 0.38645h 3.22835v 1.73902h 3.22835v -0.966124h 3.22835v 0.193225h 3.22835v 0.772899h 3.22835v -0.38645h 3.22835v 0.38645h 3.22835v
 -0.579675h 3.22835v 0.38645h 3.22835v 0.193225h 3.22835v -0.38645h 3.22835v 0.38645h 22.5984v -0.193225h 3.22835v 0.193225h 203.386" fill="none" stroke="#000099"/>
<path d="M57.1929,302.74h 3.07087v -150.136h 3.07087v 193.418h 3.07087v -304.136h 3.07087v 32.0753h 3.07087v 272.061h 3.07087v -172.357h 3.07087v 172.357h 3.07087v -136.803h 3.07087v 19.1293h 3.07087v 117.674h 3.07087v -101.443h 3.07087v 101.443h
 3.07087v -81.7341h 3.07087v 2.12547h 3.07087v 79.6086h 3.07087v -62.7981h 3.07087v 62.7981h 3.07087v -53.3301h 3.07087v 7.53577h 3.07087v 45.7943h 3.07087v -40.1908h 3.07087v 0.579675h 3.07087v 39.6111h 3.07087v -29.5634h 3.07087v 29.5634h 3.07087v
 -26.665h 3.07087v 5.21707h 3.07087v 21.448h 3.07087v -17.9699h 3.07087v 17.9699h 3.07087v -17.5835h 3.07087v 4.83062h 3.07087v 12.7528h 3.07087v -9.85447h 3.07087v 9.85447h 3.07087v -9.85447h 3.07087v 1.35257h 3.07087v 8.50189h 3.07087v -8.11544h
 3.07087v 8.11544h 3.07087v -7.14932h 3.07087v 3.67127h 3.07087v 3.47805h 3.07087v -3.8645h 3.07087v 1.15935h 3.07087v 2.70515h 3.07087v -1.15935h 3.07087v 1.15935h 3.07087v -1.73902h 6.14173v 1.73902h 3.07087v -1.15935h 3.07087v 1.15935h 3.07087v
 -0.966124h 3.07087v 0.38645h 3.07087v 0.579675h 3.07087v -0.579675h 3.07087v 0.579675h 3.07087v -0.193225h 6.14173v 0.193225h 9.2126v -0.193225h 3.07087v 0.193225h 193.465" fill="none" stroke="#000099"/>
<path d="M57.1929,322.256h 3.22835v -102.216h 3.22835v 125.983h 3.22835v -253.897h 3.22835v -28.4041h 3.22835v 282.302h 3.22835v -230.131h 3.22835v 65.6964h 3.22835v 164.434h 3.22835v -131.2h 3.22835v 30.3363h 3.22835v 100.863h 3.22835v -91.5886h
 3.22835v 91.5886h 3.22835v -73.2322h 3.22835v 5.4103h 3.22835v 67.8219h 3.22835v -55.6488h 3.22835v 8.50189h 3.22835v 47.1469h 3.22835v -45.0214h 3.22835v 7.72899h 3.22835v 37.2924h 3.22835v -36.3263h 3.22835v 9.27479h 3.22835v 27.0515h 3.22835v
 -22.2209h 3.22835v 22.2209h 3.22835v -17.9699h 3.22835v 1.5458h 3.22835v 16.4241h 3.22835v -14.6851h 3.22835v -0.38645h 3.22835v 15.0715h 3.22835v -13.1393h 3.22835v 4.25095h 3.22835v 8.88834h 3.22835v -5.4103h 3.22835v 5.4103h 3.22835v -4.83062h
 3.22835v 0.966124h 3.22835v 3.8645h 3.22835v -2.3187h 3.22835v -0.193225h 3.22835v 2.51192h 3.22835v -4.05772h 3.22835v 2.51192h 3.22835v 1.5458h 3.22835v -1.73902h 3.22835v 0.193225h 3.22835v 1.5458h 3.22835v -0.772899h 3.22835v 0.772899h 6.45669v
 -0.193225h 3.22835v 0.193225h 6.45669v -0.772899h 3.22835v 0.772899h 6.45669v -0.193225h 3.22835v 0.193225h 3.22835v -0.193225h 3.22835v 0.193225h 3.22835v -0.193225h 3.22835v 0.193225h 203.386" fill="none" stroke="#000099"/>
<path d="M57.1929,337.134h 2.3622v 8.88834h 2.3622v -163.855h 2.3622v 163.855h 2.3622v -307.575" fill="none" stroke="#000099"/>
<path d="M69.0039,38.4469v 307.575" fill="none" stroke="#000099"/>
<path d="M69.0039,346.022h 2.3622v -307.575" fill="none" stroke="#000099"/>
<path d="M73.7283,38.4469v 307.575" fill="none" stroke="#000099"/>
<path d="M73.7283,346.022h 2.3622v -269.355h 2.3622v 269.355h 2.3622v -183.37h 2.3622v 183.37h 2.3622v -112.264h 2.3622v 112.264h 2.3622v -77.4832h 2.3622v 77.4832h 4.72441v -55.4555h 2.3622v 55.4555h 2.3622v -36.133h 2.3622v 36.133h 2.3622v
 -23.5734h 2.3622v 23.5734h 2.3622v -17.3902h 2.3622v 17.3902h 2.3622v -12.7528h 2.3622v 12.7528h 2.3622v -8.69512h 2.3622v 8.69512h 2.3622v -8.30867h 2.3622v 8.30867h 4.72441v -5.02385h 2.3622v 5.02385h 2.3622v -4.25095h 2.3622v 4.25095h 2.3622v
 -2.70515h 2.3622v 2.70515h 2.3622v -2.12547h 2.3622v 2.12547h 2.3622v -1.35257h 2.3622v 1.35257h 2.3622v -1.15935h 2.3622v 1.15935h 2.3622v -0.772899h 2.3622v 0.772899h 2.3622v -0.38645h 2.3622v 0.38645h 9.44882v -0.193225h 2.3622v 0.193225h 2.3622v
 -0.193225h 2.3622v 0.193225h 23.622v -0.193225h 2.3622v 0.193225h 148.819" fill="none" stroke="#000099"/>
<path d="M57.1929,341.771h 2.83465v -62.0252h 2.83465v 66.2761h 2.83465v -247.714h 2.83465v 247.714h 2.83465v -252.545h 2.83465v 252.545h 2.83465v -238.053h 2.83465v 27.6312h 2.83465v 210.422h 2.83465v -170.038h 2.83465v 170.038h 2.83465v -132.939h
 2.83465v 132.939h 2.83465v -120.959h 2.83465v 120.959h 2.83465v -100.09h 2.83465v 24.3463h 2.83465v 75.7441h 2.83465v -60.8658h 2.83465v 60.8658h 2.83465v -51.2046h 2.83465v 51.2046h 2.83465v -40.9637h 2.83465v 2.89837h 2.83465v 38.0653h 2.83465v
 -28.7905h 2.83465v 28.7905h 2.83465v -20.2886h 2.83465v 20.2886h 2.83465v -18.1631h 2.83465v 18.1631h 2.83465v -12.7528h 2.83465v 3.0916h 2.83465v 9.66124h 2.83465v -8.69512h 2.83465v 8.69512h 2.83465v -5.60352h 2.83465v 5.60352h 2.83465v -5.02385h
 2.83465v 1.35257h 2.83465v 3.67127h 2.83465v -3.28482h 2.83465v 3.28482h 2.83465v -1.35257h 2.83465v 1.35257h 2.83465v -2.3187h 2.83465v 2.3187h 2.83465v -1.15935h 2.83465v 0.966124h 2.83465v 0.193225h 2.83465v -0.193225h 2.83465v 0.193225h 2.83465v
 -0.579675h 2.83465v 0.579675h 2.83465v -0.193225h 2.83465v 0.193225h 22.6772v -0.193225h 2.83465v 0.193225h 178.583" fill="none" stroke="#000099"/>
<text xml:space="preserve" x="264.415" y="18.7347" fill="black" font-size="16.9898" font-family="Helvetica">nTau</text></svg>
