<?xml version="1.0" standalone="no"?>
<svg width="567.429" height="383.055" viewBox="0 0 567.429 383.055" xmlns="http://www.w3.org/2000/svg" shape-rendering="crispEdges">
<title>
/home/eguiraud/Scratchpad/decks/root_plotting_short_story/root.svg
</title>
<desc>
Creator: ROOT Version 6.22/02
CreationDate: Thu Oct  1 13:22:40 2020</desc>
<defs>
</defs>
<rect x="0.5" y="0" width="566.929" height="382.555" fill="white"/>
<rect x="57.1929" y="38.2555" width="453.543" height="306.044" fill="white"/>
<rect x="57.1929" y="38.2555" width="453.543" height="306.044" fill="none" stroke="black"/>
<rect x="57.1929" y="38.2555" width="453.543" height="306.044" fill="white"/>
<rect x="57.1929" y="38.2555" width="453.543" height="306.044" fill="none" stroke="black"/>
<path d="M57.1929,344.3h 453.543" fill="none" stroke="black"/>
<path d="M60.75,335.118v 9.18133" fill="none" stroke="black"/>
<path d="M83.1218,339.709v 4.59066" fill="none" stroke="black"/>
<path d="M105.494,339.709v 4.59066" fill="none" stroke="black"/>
<path d="M127.865,339.709v 4.59066" fill="none" stroke="black"/>
<path d="M150.237,335.118v 9.18133" fill="none" stroke="black"/>
<path d="M172.609,339.709v 4.59066" fill="none" stroke="black"/>
<path d="M194.981,339.709v 4.59066" fill="none" stroke="black"/>
<path d="M217.353,339.709v 4.59066" fill="none" stroke="black"/>
<path d="M239.724,335.118v 9.18133" fill="none" stroke="black"/>
<path d="M262.096,339.709v 4.59066" fill="none" stroke="black"/>
<path d="M284.468,339.709v 4.59066" fill="none" stroke="black"/>
<path d="M306.84,339.709v 4.59066" fill="none" stroke="black"/>
<path d="M329.212,335.118v 9.18133" fill="none" stroke="black"/>
<path d="M351.583,339.709v 4.59066" fill="none" stroke="black"/>
<path d="M373.955,339.709v 4.59066" fill="none" stroke="black"/>
<path d="M396.327,339.709v 4.59066" fill="none" stroke="black"/>
<path d="M418.699,335.118v 9.18133" fill="none" stroke="black"/>
<path d="M441.07,339.709v 4.59066" fill="none" stroke="black"/>
<path d="M463.442,339.709v 4.59066" fill="none" stroke="black"/>
<path d="M485.814,339.709v 4.59066" fill="none" stroke="black"/>
<path d="M508.186,335.118v 9.18133" fill="none" stroke="black"/>
<path d="M60.75,335.118v 9.18133" fill="none" stroke="black"/>
<path d="M508.186,335.118v 9.18133" fill="none" stroke="black"/>
<text xml:space="preserve" x="57.3554" y="356.564" fill="black" font-size="12.7839" font-family="Helvetica">0</text>
<text xml:space="preserve" x="143.451" y="356.564" fill="black" font-size="12.7839" font-family="Helvetica">20</text>
<text xml:space="preserve" x="232.795" y="356.564" fill="black" font-size="12.7839" font-family="Helvetica">40</text>
<text xml:space="preserve" x="322.139" y="356.564" fill="black" font-size="12.7839" font-family="Helvetica">60</text>
<text xml:space="preserve" x="411.483" y="356.564" fill="black" font-size="12.7839" font-family="Helvetica">80</text>
<text xml:space="preserve" x="497.578" y="356.564" fill="black" font-size="12.7839" font-family="Helvetica">100</text>
<text xml:space="preserve" x="387.929" y="368.748" fill="black" font-size="12.7839" font-family="Helvetica">% of events processed</text>
<path d="M57.1929,344.3v -306.044" fill="none" stroke="black"/>
<path d="M70.7992,344.3h -13.6063" fill="none" stroke="black"/>
<path d="M63.9961,336.402h -6.80315" fill="none" stroke="black"/>
<path d="M63.9961,328.505h -6.80315" fill="none" stroke="black"/>
<path d="M63.9961,320.608h -6.80315" fill="none" stroke="black"/>
<path d="M63.9961,312.71h -6.80315" fill="none" stroke="black"/>
<path d="M70.7992,304.813h -13.6063" fill="none" stroke="black"/>
<path d="M63.9961,296.915h -6.80315" fill="none" stroke="black"/>
<path d="M63.9961,289.018h -6.80315" fill="none" stroke="black"/>
<path d="M63.9961,281.121h -6.80315" fill="none" stroke="black"/>
<path d="M63.9961,273.223h -6.80315" fill="none" stroke="black"/>
<path d="M70.7992,265.326h -13.6063" fill="none" stroke="black"/>
<path d="M63.9961,257.428h -6.80315" fill="none" stroke="black"/>
<path d="M63.9961,249.531h -6.80315" fill="none" stroke="black"/>
<path d="M63.9961,241.634h -6.80315" fill="none" stroke="black"/>
<path d="M63.9961,233.736h -6.80315" fill="none" stroke="black"/>
<path d="M70.7992,225.839h -13.6063" fill="none" stroke="black"/>
<path d="M63.9961,217.942h -6.80315" fill="none" stroke="black"/>
<path d="M63.9961,210.044h -6.80315" fill="none" stroke="black"/>
<path d="M63.9961,202.147h -6.80315" fill="none" stroke="black"/>
<path d="M63.9961,194.249h -6.80315" fill="none" stroke="black"/>
<path d="M70.7992,186.352h -13.6063" fill="none" stroke="black"/>
<path d="M63.9961,178.455h -6.80315" fill="none" stroke="black"/>
<path d="M63.9961,170.557h -6.80315" fill="none" stroke="black"/>
<path d="M63.9961,162.66h -6.80315" fill="none" stroke="black"/>
<path d="M63.9961,154.762h -6.80315" fill="none" stroke="black"/>
<path d="M70.7992,146.865h -13.6063" fill="none" stroke="black"/>
<path d="M63.9961,138.968h -6.80315" fill="none" stroke="black"/>
<path d="M63.9961,131.07h -6.80315" fill="none" stroke="black"/>
<path d="M63.9961,123.173h -6.80315" fill="none" stroke="black"/>
<path d="M63.9961,115.275h -6.80315" fill="none" stroke="black"/>
<path d="M70.7992,107.378h -13.6063" fill="none" stroke="black"/>
<path d="M63.9961,99.4806h -6.80315" fill="none" stroke="black"/>
<path d="M63.9961,91.5832h -6.80315" fill="none" stroke="black"/>
<path d="M63.9961,83.6858h -6.80315" fill="none" stroke="black"/>
<path d="M63.9961,75.7884h -6.80315" fill="none" stroke="black"/>
<path d="M70.7992,67.891h -13.6063" fill="none" stroke="black"/>
<path d="M70.7992,67.891h -13.6063" fill="none" stroke="black"/>
<path d="M63.9961,59.9937h -6.80315" fill="none" stroke="black"/>
<path d="M63.9961,52.0963h -6.80315" fill="none" stroke="black"/>
<path d="M63.9961,44.1989h -6.80315" fill="none" stroke="black"/>
<text xml:space="preserve" x="47.6087" y="348.442" fill="black" font-size="12.7839" font-family="Helvetica">0</text>
<text xml:space="preserve" x="27.3032" y="309.456" fill="black" font-size="12.7839" font-family="Helvetica">1000</text>
<text xml:space="preserve" x="27.3032" y="269.657" fill="black" font-size="12.7839" font-family="Helvetica">2000</text>
<text xml:space="preserve" x="27.3032" y="230.67" fill="black" font-size="12.7839" font-family="Helvetica">3000</text>
<text xml:space="preserve" x="27.3032" y="190.872" fill="black" font-size="12.7839" font-family="Helvetica">4000</text>
<text xml:space="preserve" x="27.3032" y="151.073" fill="black" font-size="12.7839" font-family="Helvetica">5000</text>
<text xml:space="preserve" x="27.3032" y="112.086" fill="black" font-size="12.7839" font-family="Helvetica">6000</text>
<text xml:space="preserve" x="27.3032" y="72.2875" fill="black" font-size="12.7839" font-family="Helvetica">7000</text>
<text xml:space="preserve" x="76.0364" y="30.0521" fill="black" font-size="8.68926" font-family="Helvetica">3</text>
<text xml:space="preserve" x="63.0409" y="36.5499" fill="black" font-size="12.7839" font-family="Helvetica">10</text>
<text xml:space="preserve" x="56.5431" y="36.5499" fill="black" font-size="12.7839" font-family="Times">&#0215;</text>
<g transform="rotate(-90,13.4955,102.34)">
<text xml:space="preserve" x="13.4955" y="102.34" fill="black" font-size="12.7839" font-family="Helvetica">runtime (us)</text>
</g>
<path d="M83.1218,330.83l 22.3718, -13.1376l 20.1577, -12.9082l 24.5859, -16.3006l 56.4937, -36.6035l 10.6217, -6.696l 67.1154, -40.6232l 29.412, -19.0016l 42.5083, -28.6437l 39.9387, -27.2706l 70.3345, -48.1652l 41.5245, -28.8203" fill="none"
 stroke="#352a86" stroke-width="3"/>
<g fill="#352a86">
<circle cx="83.1218" cy="330.83" r="3.24888"/>
<circle cx="105.494" cy="317.692" r="3.24888"/>
<circle cx="150.237" cy="288.483" r="3.24888"/>
<circle cx="217.353" cy="245.184" r="3.24888"/>
<circle cx="284.468" cy="204.561" r="3.24888"/>
<circle cx="396.327" cy="129.645" r="3.24888"/>
<circle cx="508.186" cy="52.6592" r="3.24888"/>
</g>
<path d="M83.1218,340.733l 22.3718, -3.23327l 44.7436, -6.54161l 67.1154, -9.41468l 24.8767, -3.27116l 19.6091, -2.6005l 10.9239, -1.62037l 11.7057, -1.97169l 9.08866, -1.76495l 10.1606, -2.22276l 11.6268, -2.80387l 12.8438, -3.33242l 21.6127,
 -5.88621l 19.1977, -5.18005l 13.0822, -3.31899l 10.5645, -2.46874l 3.68202, -0.804441l 17.2383, -3.60031l 22.0971, -4.34949l 19.4842, -3.58773l 19.3647, -3.33607l 18.9031, -3.03582l 14.7715, -2.22056" fill="none" stroke="#f9f90e" stroke-width="3"/>
<g fill="#f9f90e">
<circle cx="83.1218" cy="340.733" r="3.24888"/>
<circle cx="105.494" cy="337.5" r="3.24888"/>
<circle cx="150.237" cy="330.958" r="3.24888"/>
<circle cx="217.353" cy="321.543" r="3.24888"/>
<circle cx="284.468" cy="312.08" r="3.24888"/>
<circle cx="396.327" cy="284.297" r="3.24888"/>
<circle cx="508.186" cy="264.167" r="3.24888"/>
</g>
<text xml:space="preserve" x="170.254" y="18.681" fill="black" font-size="18.7414" font-family="Helvetica">RNTuple LHCB benchmark</text>
<rect x="58.0145" y="163.848" width="170.079" height="80.3366" fill="white"/>
<path d="M58.0145,244.184h 170.079" fill="none" stroke="black"/>
<path d="M228.093,244.184v -80.3366" fill="none" stroke="black"/>
<path d="M228.093,163.848h -170.079" fill="none" stroke="black"/>
<path d="M58.0145,163.848v 80.3366" fill="none" stroke="black"/>
<text xml:space="preserve" x="100.403" y="192.496" fill="black" font-size="22.5409" font-family="Helvetica">RNTupleDS</text>
<path d="M64.3925,197.991h 29.7638v -28.1178h -29.7638z" fill="white"/>
<path d="M64.3925,183.932h 29.7638" fill="none" stroke="#352a86" stroke-width="3"/>
<g fill="#352a86">
<circle cx="79.2744" cy="183.932" r="3.24888"/>
</g>
<text xml:space="preserve" x="100.403" y="233.107" fill="black" font-size="22.5409" font-family="Helvetica">RNTuple</text>
<path d="M64.3925,238.159h 29.7638v -28.1178h -29.7638z" fill="white"/>
<path d="M64.3925,224.1h 29.7638" fill="none" stroke="#f9f90e" stroke-width="3"/>
<g fill="#f9f90e">
<circle cx="79.2744" cy="224.1" r="3.24888"/>
</g></svg>
